cookie=29a63dd8-c9b7-468b-b1d6-d1dbf749157a
cookie=8f0835a5-b4ec-4206-9917-629e95c7ad58
cookie=5282211a-7325-4063-8477-53584baa3204
cookie=9bf7f303-4ce6-40d7-b436-cf685aafd665
cookie=7ea8b4c9-26aa-43c8-817c-bcaf97bba318
cookie=5282211a-7325-4063-8477-53584baa3204
cookie=43ae49e3-03a7-424d-bd39-bff6e2601ade
cookie=855dbb83-7517-4dbe-906b-b54cfb7f12e4
cookie=fcb097f8-5411-4572-988d-d383625fad0c
cookie=120e8cf6-4638-447c-ad37-bd463f61d3ac
cookie=81599815-20da-4041-a019-80f0b3c8706d
cookie=e34c856b-a24e-4a38-b02d-166786d678ce
cookie=d03652b1-4995-467d-8aae-b1900b16dda6
cookie=02e71d9b-a4cb-4584-b818-0067aab2da99
cookie=46159960-bd66-4de7-9772-6846b9945fd4
